Trains/Binaries/Win64/Trains.exe	2023-03-08T15:17:15.390Z
Trains/Binaries/Win64/turbojpeg.dll	2023-03-08T14:05:04.568Z
Engine/Extras/Redist/en-us/UE4PrereqSetup_x64.exe	2023-03-08T14:02:15.773Z
Engine/Binaries/ThirdParty/Oculus/OVRPlugin/OVRPlugin/Win64/OVRPlugin.dll	2023-03-08T13:59:29.415Z
Engine/Binaries/ThirdParty/DbgHelp/dbghelp.dll	2023-03-08T13:59:25.709Z
Engine/Binaries/ThirdParty/PhysX3/Win64/VS2015/PxFoundationPROFILE_x64.dll	2023-03-08T13:59:37.058Z
Engine/Binaries/ThirdParty/PhysX3/Win64/VS2015/PxPvdSDKPROFILE_x64.dll	2023-03-08T13:59:37.068Z
Engine/Binaries/ThirdParty/PhysX3/Win64/VS2015/PhysX3PROFILE_x64.dll	2023-03-08T13:59:36.776Z
Engine/Binaries/ThirdParty/PhysX3/Win64/VS2015/PhysX3CookingPROFILE_x64.dll	2023-03-08T13:59:36.554Z
Engine/Binaries/ThirdParty/PhysX3/Win64/VS2015/PhysX3CommonPROFILE_x64.dll	2023-03-08T13:59:36.384Z
Engine/Binaries/ThirdParty/PhysX3/Win64/VS2015/APEX_ClothingPROFILE_x64.dll	2023-03-08T13:59:34.216Z
Engine/Binaries/ThirdParty/PhysX3/Win64/VS2015/APEX_LegacyPROFILE_x64.dll	2023-03-08T13:59:35.159Z
Engine/Binaries/ThirdParty/PhysX3/Win64/VS2015/ApexFrameworkPROFILE_x64.dll	2023-03-08T13:59:35.655Z
Engine/Binaries/ThirdParty/PhysX3/Win64/VS2015/NvClothPROFILE_x64.dll	2023-03-08T13:59:35.756Z
Engine/Binaries/ThirdParty/Ogg/Win64/VS2015/libogg_64.dll	2023-03-08T13:59:29.419Z
Engine/Binaries/ThirdParty/Vorbis/Win64/VS2015/libvorbis_64.dll	2023-03-08T13:59:41.523Z
Engine/Binaries/ThirdParty/Vorbis/Win64/VS2015/libvorbisfile_64.dll	2023-03-08T13:59:41.524Z
Engine/Binaries/ThirdParty/NVIDIA/NVaftermath/Win64/GFSDK_Aftermath_Lib.x64.dll	2023-03-08T13:59:29.130Z
Engine/Binaries/ThirdParty/OpenVR/OpenVRv1_5_17/Win64/openvr_api.dll	2023-03-08T13:59:29.609Z
Engine/Binaries/ThirdParty/Windows/WinPixEventRuntime/x64/WinPixEventRuntime.dll	2023-03-08T13:59:41.566Z
Engine/Binaries/ThirdParty/Windows/XAudio2_9/x64/xaudio2_9redist.dll	2023-03-08T13:59:41.887Z
Trains.exe	2023-03-08T15:30:34.360Z
